reg_n/sim_testbench.vcd
$date
  Thu Apr 25 15:28:39 2013
$end
$version
  GHDL v0
$end
$timescale
  1 fs
$end
$var reg 16 ! sinput[15:0] $end
$var reg 1 " sreset $end
$var reg 1 # shorloge $end
$var reg 16 $ soutput[15:0] $end
$scope module dut $end
$var reg 16 % input[15:0] $end
$var reg 1 & reset $end
$var reg 1 ' horloge $end
$var reg 16 ( output[15:0] $end
$upscope $end
$enddefinitions $end
#0
b1111000011110000 !
1"
1#
b1111000011110000 $
b1111000011110000 %
1&
1'
b1111000011110000 (
#50000000
0#
0'
#51000000
#100000000
1#
1'
#101000000
b1111111100000000 !
b1111111100000000 %
#150000000
0#
0'
#200000000
1#
b1111111100000000 $
1'
b1111111100000000 (
#201000000
#250000000
0#
0'
#300000000
1#
1'
#301000000
0"
0&
#350000000
0#
b0000000000000000 $
0'
b0000000000000000 (
#400000000
1#
1'
#401000000
#450000000
0#
0'
#500000000
1#
1'
#550000000
0#
0'
#600000000
1#
1'
#650000000
0#
0'
#700000000
1#
1'
#750000000
0#
0'
#800000000
1#
1'
#850000000
0#
0'
#900000000
1#
1'
#950000000
0#
0'
#1000000000
1#
1'
#1050000000
0#
0'
